{
  "data": {
    "repository": {
      "issue": {
        "author": {
          "login": "goldylucks"
        },
        "bodyHTML": "<p><strong>Do you want to request a <em>feature</em> or report a <em>bug</em>?</strong><br>\nRequest a feature</p>\n<p><strong>What is the current behavior?</strong><br>\nReact prop types warning doesn't reveal info on the component's instance</p>\n<p><strong>What is the expected behavior?</strong><br>\nPrint also the component's props</p>\n<p><strong>Which versions of React, and which browser / OS are affected by this issue? Did this work in previous versions of React?</strong><br>\nN/A</p>\n<p>The current warnings point the developer only to the source code, and it would be AMAZING if we'll easily see which component instance caused the warnings. Consider a list with hundreds of items, each rendering a component. ATM there's no convenient way to track down the renegade instance.</p>\n<p>So instead of the current behavior:</p>\n<p><a target=\"_blank\" rel=\"noopener noreferrer\" href=\"https://user-images.githubusercontent.com/6963212/60722000-479d8000-9f38-11e9-9295-a113dbac079d.png\"><img src=\"https://user-images.githubusercontent.com/6963212/60722000-479d8000-9f38-11e9-9295-a113dbac079d.png\" alt=\"image\" style=\"max-width:100%;\"></a></p>\n<p>Also add:</p>\n<pre><code>index.js:1375 Warning: Failed prop type: The prop `latitude` is marked as required in `RestaurantListItem`, but its value is `null`.\n\nRestaurantListItem's instance has the following props: {OBJECT_OF_PROPS_THAT_OPENS_ON_CLICK}\n</code></pre>\n<p>I currently find myself many times having to temporary do this in different components.</p>\n<p>It seems to me like a very easy thing to add, at least for development build.</p>\n<p>Thoughts?</p>\n<p>I can take a swing at it with some guidance (I'd love to dip my toes in React's code)</p>",
        "comments": {
          "nodes": [
            {
              "author": {
                "login": "goldylucks"
              },
              "bodyHTML": "<p>migrated here <a class=\"issue-link js-issue-link\" data-error-text=\"Failed to load issue title\" data-id=\"464821156\" data-permission-text=\"Issue title is private\" data-url=\"https://github.com/facebook/prop-types/issues/279\" data-hovercard-type=\"issue\" data-hovercard-url=\"/facebook/prop-types/issues/279/hovercard\" href=\"https://github.com/facebook/prop-types/issues/279\">facebook/prop-types#279</a></p>"
            }
          ]
        },
        "number": 16069,
        "title": "Better prop types warnigs"
      }
    }
  }
}